<svg width="28" height="28" viewBox="0 0 28 28" fill="none" xmlns="http://www.w3.org/2000/svg">
<path d="M9.61341 8.28003L12.6667 5.21336V18C12.6667 18.3536 12.8072 18.6928 13.0573 18.9428C13.3073 19.1929 13.6465 19.3334 14.0001 19.3334C14.3537 19.3334 14.6928 19.1929 14.9429 18.9428C15.1929 18.6928 15.3334 18.3536 15.3334 18V5.21336L18.3867 8.28003C18.5107 8.405 18.6582 8.50419 18.8206 8.57188C18.9831 8.63957 19.1574 8.67442 19.3334 8.67442C19.5094 8.67442 19.6837 8.63957 19.8462 8.57188C20.0087 8.50419 20.1561 8.405 20.2801 8.28003C20.4051 8.15607 20.5042 8.00861 20.5719 7.84613C20.6396 7.68365 20.6745 7.50937 20.6745 7.33336C20.6745 7.15734 20.6396 6.98307 20.5719 6.82059C20.5042 6.65811 20.4051 6.51064 20.2801 6.38669L14.9467 1.05336C14.8199 0.93197 14.6704 0.836817 14.5067 0.773358C14.1821 0.64 13.818 0.64 13.4934 0.773358C13.3297 0.836817 13.1802 0.93197 13.0534 1.05336L7.72008 6.38669C7.59576 6.51101 7.49715 6.6586 7.42987 6.82103C7.36259 6.98346 7.32796 7.15755 7.32796 7.33336C7.32796 7.50917 7.36259 7.68326 7.42987 7.84569C7.49715 8.00812 7.59576 8.15571 7.72008 8.28003C7.8444 8.40434 7.99199 8.50296 8.15442 8.57024C8.31685 8.63752 8.49094 8.67215 8.66675 8.67215C8.84256 8.67215 9.01665 8.63752 9.17908 8.57024C9.34151 8.50296 9.4891 8.40434 9.61341 8.28003ZM26.0001 16.6667C25.6465 16.6667 25.3073 16.8072 25.0573 17.0572C24.8072 17.3073 24.6667 17.6464 24.6667 18V23.3334C24.6667 23.687 24.5263 24.0261 24.2762 24.2762C24.0262 24.5262 23.687 24.6667 23.3334 24.6667H4.66675C4.31313 24.6667 3.97399 24.5262 3.72394 24.2762C3.47389 24.0261 3.33341 23.687 3.33341 23.3334V18C3.33341 17.6464 3.19294 17.3073 2.94289 17.0572C2.69284 16.8072 2.3537 16.6667 2.00008 16.6667C1.64646 16.6667 1.30732 16.8072 1.05727 17.0572C0.807224 17.3073 0.666748 17.6464 0.666748 18V23.3334C0.666748 24.3942 1.08818 25.4116 1.83832 26.1618C2.58847 26.9119 3.60588 27.3334 4.66675 27.3334H23.3334C24.3943 27.3334 25.4117 26.9119 26.1618 26.1618C26.912 25.4116 27.3334 24.3942 27.3334 23.3334V18C27.3334 17.6464 27.1929 17.3073 26.9429 17.0572C26.6928 16.8072 26.3537 16.6667 26.0001 16.6667Z" fill="url(#paint0_linear_260_14)"/>
<defs>
<linearGradient id="paint0_linear_260_14" x1="14.0001" y1="0.67334" x2="14.0001" y2="27.3334" gradientUnits="userSpaceOnUse">
<stop stop-color="#38568F"/>
<stop offset="1" stop-color="#38A1F7"/>
</linearGradient>
</defs>
</svg>
